365 days
$999,000
17.33 %
more than 1,000,000
in year 1999, May 12-15
102 dalmatians
Agent 007 / James Bond
Tereshchenkivska, 13
e.g., 2.375″
You would have to pay --- 1,999.99 dollars.
0.027777... yards
about -5 degrees Celcium
My lottery numbers are: 37, 66, 91, 72...
My lottery numbers are: 37,66,91,72...
She chose Mat--number 7--and went on a date with him.
